%YAML 1.1
%TAG !u! tag:unity3d.com,2011:
--- !u!1045 &1
EditorBuildSettings:
  m_ObjectHideFlags: 0
  serializedVersion: 2
  m_Scenes:
  - enabled: 1
    path: Assets/Scenes/MainMenu.unity
  - enabled: 1
    path: Assets/Scenes/LevelSelector.unity
  - enabled: 1
    path: Assets/Scenes/Level.unity
  - enabled: 1
    path: Assets/Scenes/Level1.unity
  - enabled: 1
    path: Assets/Scenes/Level2.unity
  - enabled: 1
    path: Assets/Scenes/Level3.unity
  - enabled: 1
    path: Assets/Scenes/Level4.unity
  - enabled: 1
    path: Assets/Scenes/Level5.unity
  - enabled: 1
    path: Assets/Scenes/Level6.unity
  - enabled: 1
    path: Assets/Scenes/SandBox.unity
