%YAML 1.1
%TAG !u! tag:unity3d.com,2011:
--- !u!29 &1
SceneSettings:
  m_ObjectHideFlags: 0
  m_PVSData: 
  m_PVSObjectsArray: []
  m_PVSPortalsArray: []
  m_OcclusionBakeSettings:
    smallestOccluder: 5
    smallestHole: 0.25
    backfaceThreshold: 100
--- !u!104 &2
RenderSettings:
  m_ObjectHideFlags: 0
  serializedVersion: 6
  m_Fog: 0
  m_FogColor: {r: 0.5, g: 0.5, b: 0.5, a: 1}
  m_FogMode: 3
  m_FogDensity: 0.01
  m_LinearFogStart: 0
  m_LinearFogEnd: 300
  m_AmbientSkyColor: {r: 0.212, g: 0.227, b: 0.259, a: 1}
  m_AmbientEquatorColor: {r: 0.114, g: 0.125, b: 0.133, a: 1}
  m_AmbientGroundColor: {r: 0.047, g: 0.043, b: 0.035, a: 1}
  m_AmbientIntensity: 1
  m_AmbientMode: 3
  m_SkyboxMaterial: {fileID: 0}
  m_HaloStrength: 0.5
  m_FlareStrength: 1
  m_FlareFadeSpeed: 3
  m_HaloTexture: {fileID: 0}
  m_SpotCookie: {fileID: 10001, guid: 0000000000000000e000000000000000, type: 0}
  m_DefaultReflectionMode: 0
  m_DefaultReflectionResolution: 128
  m_ReflectionBounces: 1
  m_ReflectionIntensity: 1
  m_CustomReflection: {fileID: 0}
  m_Sun: {fileID: 0}
--- !u!157 &3
LightmapSettings:
  m_ObjectHideFlags: 0
  serializedVersion: 6
  m_GIWorkflowMode: 1
  m_LightmapsMode: 1
  m_GISettings:
    serializedVersion: 2
    m_BounceScale: 1
    m_IndirectOutputScale: 1
    m_AlbedoBoost: 1
    m_TemporalCoherenceThreshold: 1
    m_EnvironmentLightingMode: 0
    m_EnableBakedLightmaps: 0
    m_EnableRealtimeLightmaps: 0
  m_LightmapEditorSettings:
    serializedVersion: 3
    m_Resolution: 2
    m_BakeResolution: 40
    m_TextureWidth: 1024
    m_TextureHeight: 1024
    m_AOMaxDistance: 1
    m_Padding: 2
    m_CompAOExponent: 0
    m_LightmapParameters: {fileID: 0}
    m_TextureCompression: 1
    m_FinalGather: 0
    m_FinalGatherRayCount: 1024
    m_ReflectionCompression: 2
  m_LightingDataAsset: {fileID: 0}
  m_RuntimeCPUUsage: 25
--- !u!196 &4
NavMeshSettings:
  serializedVersion: 2
  m_ObjectHideFlags: 0
  m_BuildSettings:
    serializedVersion: 2
    agentRadius: 0.5
    agentHeight: 2
    agentSlope: 45
    agentClimb: 0.4
    ledgeDropHeight: 0
    maxJumpAcrossDistance: 0
    accuratePlacement: 0
    minRegionArea: 2
    cellSize: 0.16666667
    manualCellSize: 0
  m_NavMeshData: {fileID: 0}
--- !u!1001 &79993233
Prefab:
  m_ObjectHideFlags: 0
  serializedVersion: 2
  m_Modification:
    m_TransformParent: {fileID: 0}
    m_Modifications:
    - target: {fileID: 479206, guid: 9d7933993d02e4a40b89a2e44a0dd669, type: 2}
      propertyPath: m_LocalPosition.x
      value: 590.10815
      objectReference: {fileID: 0}
    - target: {fileID: 479206, guid: 9d7933993d02e4a40b89a2e44a0dd669, type: 2}
      propertyPath: m_LocalPosition.y
      value: 279.31958
      objectReference: {fileID: 0}
    - target: {fileID: 479206, guid: 9d7933993d02e4a40b89a2e44a0dd669, type: 2}
      propertyPath: m_LocalPosition.z
      value: 0
      objectReference: {fileID: 0}
    - target: {fileID: 479206, guid: 9d7933993d02e4a40b89a2e44a0dd669, type: 2}
      propertyPath: m_LocalRotation.x
      value: 0
      objectReference: {fileID: 0}
    - target: {fileID: 479206, guid: 9d7933993d02e4a40b89a2e44a0dd669, type: 2}
      propertyPath: m_LocalRotation.y
      value: 0
      objectReference: {fileID: 0}
    - target: {fileID: 479206, guid: 9d7933993d02e4a40b89a2e44a0dd669, type: 2}
      propertyPath: m_LocalRotation.z
      value: 0
      objectReference: {fileID: 0}
    - target: {fileID: 479206, guid: 9d7933993d02e4a40b89a2e44a0dd669, type: 2}
      propertyPath: m_LocalRotation.w
      value: 1
      objectReference: {fileID: 0}
    - target: {fileID: 479206, guid: 9d7933993d02e4a40b89a2e44a0dd669, type: 2}
      propertyPath: m_RootOrder
      value: 3
      objectReference: {fileID: 0}
    m_RemovedComponents: []
  m_ParentPrefab: {fileID: 100100000, guid: 9d7933993d02e4a40b89a2e44a0dd669, type: 2}
  m_IsPrefabParent: 0
--- !u!1001 &199119776
Prefab:
  m_ObjectHideFlags: 0
  serializedVersion: 2
  m_Modification:
    m_TransformParent: {fileID: 0}
    m_Modifications:
    - target: {fileID: 422940, guid: d3015d5b9189bd340b857d9305647cb3, type: 2}
      propertyPath: m_LocalPosition.x
      value: -6.28
      objectReference: {fileID: 0}
    - target: {fileID: 422940, guid: d3015d5b9189bd340b857d9305647cb3, type: 2}
      propertyPath: m_LocalPosition.y
      value: -0.94
      objectReference: {fileID: 0}
    - target: {fileID: 422940, guid: d3015d5b9189bd340b857d9305647cb3, type: 2}
      propertyPath: m_LocalPosition.z
      value: 0
      objectReference: {fileID: 0}
    - target: {fileID: 422940, guid: d3015d5b9189bd340b857d9305647cb3, type: 2}
      propertyPath: m_LocalRotation.x
      value: 0
      objectReference: {fileID: 0}
    - target: {fileID: 422940, guid: d3015d5b9189bd340b857d9305647cb3, type: 2}
      propertyPath: m_LocalRotation.y
      value: 0
      objectReference: {fileID: 0}
    - target: {fileID: 422940, guid: d3015d5b9189bd340b857d9305647cb3, type: 2}
      propertyPath: m_LocalRotation.z
      value: 0
      objectReference: {fileID: 0}
    - target: {fileID: 422940, guid: d3015d5b9189bd340b857d9305647cb3, type: 2}
      propertyPath: m_LocalRotation.w
      value: 1
      objectReference: {fileID: 0}
    - target: {fileID: 422940, guid: d3015d5b9189bd340b857d9305647cb3, type: 2}
      propertyPath: m_RootOrder
      value: 5
      objectReference: {fileID: 0}
    m_RemovedComponents: []
  m_ParentPrefab: {fileID: 100100000, guid: d3015d5b9189bd340b857d9305647cb3, type: 2}
  m_IsPrefabParent: 0
--- !u!20 &384754895 stripped
Camera:
  m_PrefabParentObject: {fileID: 2054750, guid: da653661fa9cf41449514bf070adeaed,
    type: 2}
  m_PrefabInternal: {fileID: 1156256049}
--- !u!1001 &533242759
Prefab:
  m_ObjectHideFlags: 0
  serializedVersion: 2
  m_Modification:
    m_TransformParent: {fileID: 0}
    m_Modifications:
    - target: {fileID: 22400508, guid: d915f42d45c4aaa43a1b568432b275a7, type: 2}
      propertyPath: m_LocalPosition.x
      value: 0
      objectReference: {fileID: 0}
    - target: {fileID: 22400508, guid: d915f42d45c4aaa43a1b568432b275a7, type: 2}
      propertyPath: m_LocalPosition.y
      value: 0
      objectReference: {fileID: 0}
    - target: {fileID: 22400508, guid: d915f42d45c4aaa43a1b568432b275a7, type: 2}
      propertyPath: m_LocalPosition.z
      value: 0
      objectReference: {fileID: 0}
    - target: {fileID: 22400508, guid: d915f42d45c4aaa43a1b568432b275a7, type: 2}
      propertyPath: m_LocalRotation.x
      value: 0
      objectReference: {fileID: 0}
    - target: {fileID: 22400508, guid: d915f42d45c4aaa43a1b568432b275a7, type: 2}
      propertyPath: m_LocalRotation.y
      value: 0
      objectReference: {fileID: 0}
    - target: {fileID: 22400508, guid: d915f42d45c4aaa43a1b568432b275a7, type: 2}
      propertyPath: m_LocalRotation.z
      value: 0
      objectReference: {fileID: 0}
    - target: {fileID: 22400508, guid: d915f42d45c4aaa43a1b568432b275a7, type: 2}
      propertyPath: m_LocalRotation.w
      value: 1
      objectReference: {fileID: 0}
    - target: {fileID: 22400508, guid: d915f42d45c4aaa43a1b568432b275a7, type: 2}
      propertyPath: m_RootOrder
      value: 7
      objectReference: {fileID: 0}
    - target: {fileID: 22400508, guid: d915f42d45c4aaa43a1b568432b275a7, type: 2}
      propertyPath: m_AnchoredPosition.x
      value: 0
      objectReference: {fileID: 0}
    - target: {fileID: 22400508, guid: d915f42d45c4aaa43a1b568432b275a7, type: 2}
      propertyPath: m_AnchoredPosition.y
      value: 0
      objectReference: {fileID: 0}
    - target: {fileID: 22400508, guid: d915f42d45c4aaa43a1b568432b275a7, type: 2}
      propertyPath: m_SizeDelta.x
      value: 0
      objectReference: {fileID: 0}
    - target: {fileID: 22400508, guid: d915f42d45c4aaa43a1b568432b275a7, type: 2}
      propertyPath: m_SizeDelta.y
      value: 0
      objectReference: {fileID: 0}
    - target: {fileID: 22400508, guid: d915f42d45c4aaa43a1b568432b275a7, type: 2}
      propertyPath: m_AnchorMin.x
      value: 0
      objectReference: {fileID: 0}
    - target: {fileID: 22400508, guid: d915f42d45c4aaa43a1b568432b275a7, type: 2}
      propertyPath: m_AnchorMin.y
      value: 0
      objectReference: {fileID: 0}
    - target: {fileID: 22400508, guid: d915f42d45c4aaa43a1b568432b275a7, type: 2}
      propertyPath: m_AnchorMax.x
      value: 0
      objectReference: {fileID: 0}
    - target: {fileID: 22400508, guid: d915f42d45c4aaa43a1b568432b275a7, type: 2}
      propertyPath: m_AnchorMax.y
      value: 0
      objectReference: {fileID: 0}
    - target: {fileID: 22400508, guid: d915f42d45c4aaa43a1b568432b275a7, type: 2}
      propertyPath: m_Pivot.x
      value: 0
      objectReference: {fileID: 0}
    - target: {fileID: 22400508, guid: d915f42d45c4aaa43a1b568432b275a7, type: 2}
      propertyPath: m_Pivot.y
      value: 0
      objectReference: {fileID: 0}
    - target: {fileID: 22355802, guid: d915f42d45c4aaa43a1b568432b275a7, type: 2}
      propertyPath: m_Camera
      value: 
      objectReference: {fileID: 384754895}
    m_RemovedComponents: []
  m_ParentPrefab: {fileID: 100100000, guid: d915f42d45c4aaa43a1b568432b275a7, type: 2}
  m_IsPrefabParent: 0
--- !u!1001 &665980627
Prefab:
  m_ObjectHideFlags: 0
  serializedVersion: 2
  m_Modification:
    m_TransformParent: {fileID: 0}
    m_Modifications:
    - target: {fileID: 419292, guid: c5607031807265b48b4a92e64f67d4cb, type: 2}
      propertyPath: m_LocalPosition.x
      value: 0
      objectReference: {fileID: 0}
    - target: {fileID: 419292, guid: c5607031807265b48b4a92e64f67d4cb, type: 2}
      propertyPath: m_LocalPosition.y
      value: 0
      objectReference: {fileID: 0}
    - target: {fileID: 419292, guid: c5607031807265b48b4a92e64f67d4cb, type: 2}
      propertyPath: m_LocalPosition.z
      value: 0
      objectReference: {fileID: 0}
    - target: {fileID: 419292, guid: c5607031807265b48b4a92e64f67d4cb, type: 2}
      propertyPath: m_LocalRotation.x
      value: 0
      objectReference: {fileID: 0}
    - target: {fileID: 419292, guid: c5607031807265b48b4a92e64f67d4cb, type: 2}
      propertyPath: m_LocalRotation.y
      value: 0
      objectReference: {fileID: 0}
    - target: {fileID: 419292, guid: c5607031807265b48b4a92e64f67d4cb, type: 2}
      propertyPath: m_LocalRotation.z
      value: 0
      objectReference: {fileID: 0}
    - target: {fileID: 419292, guid: c5607031807265b48b4a92e64f67d4cb, type: 2}
      propertyPath: m_LocalRotation.w
      value: 1
      objectReference: {fileID: 0}
    - target: {fileID: 419292, guid: c5607031807265b48b4a92e64f67d4cb, type: 2}
      propertyPath: m_RootOrder
      value: 0
      objectReference: {fileID: 0}
    - target: {fileID: 400110, guid: c5607031807265b48b4a92e64f67d4cb, type: 2}
      propertyPath: m_LocalPosition.x
      value: -17.41
      objectReference: {fileID: 0}
    m_RemovedComponents: []
  m_ParentPrefab: {fileID: 100100000, guid: c5607031807265b48b4a92e64f67d4cb, type: 2}
  m_IsPrefabParent: 0
--- !u!4 &768160194 stripped
Transform:
  m_PrefabParentObject: {fileID: 422940, guid: d3015d5b9189bd340b857d9305647cb3, type: 2}
  m_PrefabInternal: {fileID: 199119776}
--- !u!4 &897356085 stripped
Transform:
  m_PrefabParentObject: {fileID: 479376, guid: c5607031807265b48b4a92e64f67d4cb, type: 2}
  m_PrefabInternal: {fileID: 665980627}
--- !u!1001 &1156256049
Prefab:
  m_ObjectHideFlags: 0
  serializedVersion: 2
  m_Modification:
    m_TransformParent: {fileID: 0}
    m_Modifications:
    - target: {fileID: 474550, guid: da653661fa9cf41449514bf070adeaed, type: 2}
      propertyPath: m_LocalPosition.x
      value: 0
      objectReference: {fileID: 0}
    - target: {fileID: 474550, guid: da653661fa9cf41449514bf070adeaed, type: 2}
      propertyPath: m_LocalPosition.y
      value: 0
      objectReference: {fileID: 0}
    - target: {fileID: 474550, guid: da653661fa9cf41449514bf070adeaed, type: 2}
      propertyPath: m_LocalPosition.z
      value: -10
      objectReference: {fileID: 0}
    - target: {fileID: 474550, guid: da653661fa9cf41449514bf070adeaed, type: 2}
      propertyPath: m_LocalRotation.x
      value: 0
      objectReference: {fileID: 0}
    - target: {fileID: 474550, guid: da653661fa9cf41449514bf070adeaed, type: 2}
      propertyPath: m_LocalRotation.y
      value: 0
      objectReference: {fileID: 0}
    - target: {fileID: 474550, guid: da653661fa9cf41449514bf070adeaed, type: 2}
      propertyPath: m_LocalRotation.z
      value: 0
      objectReference: {fileID: 0}
    - target: {fileID: 474550, guid: da653661fa9cf41449514bf070adeaed, type: 2}
      propertyPath: m_LocalRotation.w
      value: 1
      objectReference: {fileID: 0}
    - target: {fileID: 474550, guid: da653661fa9cf41449514bf070adeaed, type: 2}
      propertyPath: m_RootOrder
      value: 1
      objectReference: {fileID: 0}
    - target: {fileID: 11455778, guid: da653661fa9cf41449514bf070adeaed, type: 2}
      propertyPath: limitLeft
      value: 
      objectReference: {fileID: 1676683076}
    - target: {fileID: 11455778, guid: da653661fa9cf41449514bf070adeaed, type: 2}
      propertyPath: limitRight
      value: 
      objectReference: {fileID: 897356085}
    - target: {fileID: 11455778, guid: da653661fa9cf41449514bf070adeaed, type: 2}
      propertyPath: playerFollowed
      value: 
      objectReference: {fileID: 768160194}
    m_RemovedComponents: []
  m_ParentPrefab: {fileID: 100100000, guid: da653661fa9cf41449514bf070adeaed, type: 2}
  m_IsPrefabParent: 0
--- !u!1001 &1447140082
Prefab:
  m_ObjectHideFlags: 0
  serializedVersion: 2
  m_Modification:
    m_TransformParent: {fileID: 0}
    m_Modifications:
    - target: {fileID: 451954, guid: 32b5f89b7ae7a9f4d9e166f685169f42, type: 2}
      propertyPath: m_LocalPosition.x
      value: -9.38
      objectReference: {fileID: 0}
    - target: {fileID: 451954, guid: 32b5f89b7ae7a9f4d9e166f685169f42, type: 2}
      propertyPath: m_LocalPosition.y
      value: -6.57
      objectReference: {fileID: 0}
    - target: {fileID: 451954, guid: 32b5f89b7ae7a9f4d9e166f685169f42, type: 2}
      propertyPath: m_LocalPosition.z
      value: 0
      objectReference: {fileID: 0}
    - target: {fileID: 451954, guid: 32b5f89b7ae7a9f4d9e166f685169f42, type: 2}
      propertyPath: m_LocalRotation.x
      value: 0
      objectReference: {fileID: 0}
    - target: {fileID: 451954, guid: 32b5f89b7ae7a9f4d9e166f685169f42, type: 2}
      propertyPath: m_LocalRotation.y
      value: 0
      objectReference: {fileID: 0}
    - target: {fileID: 451954, guid: 32b5f89b7ae7a9f4d9e166f685169f42, type: 2}
      propertyPath: m_LocalRotation.z
      value: 0
      objectReference: {fileID: 0}
    - target: {fileID: 451954, guid: 32b5f89b7ae7a9f4d9e166f685169f42, type: 2}
      propertyPath: m_LocalRotation.w
      value: 1
      objectReference: {fileID: 0}
    - target: {fileID: 451954, guid: 32b5f89b7ae7a9f4d9e166f685169f42, type: 2}
      propertyPath: m_RootOrder
      value: 6
      objectReference: {fileID: 0}
    m_RemovedComponents: []
  m_ParentPrefab: {fileID: 100100000, guid: 32b5f89b7ae7a9f4d9e166f685169f42, type: 2}
  m_IsPrefabParent: 0
--- !u!1001 &1509429049
Prefab:
  m_ObjectHideFlags: 0
  serializedVersion: 2
  m_Modification:
    m_TransformParent: {fileID: 0}
    m_Modifications:
    - target: {fileID: 413024, guid: 3ddf345a55f59ea46ab0fe33a17c8685, type: 2}
      propertyPath: m_LocalPosition.x
      value: -13.7858925
      objectReference: {fileID: 0}
    - target: {fileID: 413024, guid: 3ddf345a55f59ea46ab0fe33a17c8685, type: 2}
      propertyPath: m_LocalPosition.y
      value: -2.1747522
      objectReference: {fileID: 0}
    - target: {fileID: 413024, guid: 3ddf345a55f59ea46ab0fe33a17c8685, type: 2}
      propertyPath: m_LocalPosition.z
      value: 0
      objectReference: {fileID: 0}
    - target: {fileID: 413024, guid: 3ddf345a55f59ea46ab0fe33a17c8685, type: 2}
      propertyPath: m_LocalRotation.x
      value: 0
      objectReference: {fileID: 0}
    - target: {fileID: 413024, guid: 3ddf345a55f59ea46ab0fe33a17c8685, type: 2}
      propertyPath: m_LocalRotation.y
      value: 0
      objectReference: {fileID: 0}
    - target: {fileID: 413024, guid: 3ddf345a55f59ea46ab0fe33a17c8685, type: 2}
      propertyPath: m_LocalRotation.z
      value: 0
      objectReference: {fileID: 0}
    - target: {fileID: 413024, guid: 3ddf345a55f59ea46ab0fe33a17c8685, type: 2}
      propertyPath: m_LocalRotation.w
      value: 1
      objectReference: {fileID: 0}
    - target: {fileID: 413024, guid: 3ddf345a55f59ea46ab0fe33a17c8685, type: 2}
      propertyPath: m_RootOrder
      value: 9
      objectReference: {fileID: 0}
    m_RemovedComponents: []
  m_ParentPrefab: {fileID: 100100000, guid: 3ddf345a55f59ea46ab0fe33a17c8685, type: 2}
  m_IsPrefabParent: 0
--- !u!1001 &1585972721
Prefab:
  m_ObjectHideFlags: 0
  serializedVersion: 2
  m_Modification:
    m_TransformParent: {fileID: 0}
    m_Modifications:
    - target: {fileID: 444336, guid: c938c2e6d9d4e2e49bdbcf523cafabb4, type: 2}
      propertyPath: m_LocalPosition.x
      value: -2.945
      objectReference: {fileID: 0}
    - target: {fileID: 444336, guid: c938c2e6d9d4e2e49bdbcf523cafabb4, type: 2}
      propertyPath: m_LocalPosition.y
      value: -4.11
      objectReference: {fileID: 0}
    - target: {fileID: 444336, guid: c938c2e6d9d4e2e49bdbcf523cafabb4, type: 2}
      propertyPath: m_LocalPosition.z
      value: 0.140625
      objectReference: {fileID: 0}
    - target: {fileID: 444336, guid: c938c2e6d9d4e2e49bdbcf523cafabb4, type: 2}
      propertyPath: m_LocalRotation.x
      value: 0
      objectReference: {fileID: 0}
    - target: {fileID: 444336, guid: c938c2e6d9d4e2e49bdbcf523cafabb4, type: 2}
      propertyPath: m_LocalRotation.y
      value: 0
      objectReference: {fileID: 0}
    - target: {fileID: 444336, guid: c938c2e6d9d4e2e49bdbcf523cafabb4, type: 2}
      propertyPath: m_LocalRotation.z
      value: 0
      objectReference: {fileID: 0}
    - target: {fileID: 444336, guid: c938c2e6d9d4e2e49bdbcf523cafabb4, type: 2}
      propertyPath: m_LocalRotation.w
      value: 1
      objectReference: {fileID: 0}
    - target: {fileID: 444336, guid: c938c2e6d9d4e2e49bdbcf523cafabb4, type: 2}
      propertyPath: m_RootOrder
      value: 2
      objectReference: {fileID: 0}
    m_RemovedComponents: []
  m_ParentPrefab: {fileID: 100100000, guid: c938c2e6d9d4e2e49bdbcf523cafabb4, type: 2}
  m_IsPrefabParent: 0
--- !u!1001 &1601673637
Prefab:
  m_ObjectHideFlags: 0
  serializedVersion: 2
  m_Modification:
    m_TransformParent: {fileID: 0}
    m_Modifications:
    - target: {fileID: 480182, guid: 5b3bd73abc15dad42855d3563df0fff9, type: 2}
      propertyPath: m_LocalPosition.x
      value: -0.03
      objectReference: {fileID: 0}
    - target: {fileID: 480182, guid: 5b3bd73abc15dad42855d3563df0fff9, type: 2}
      propertyPath: m_LocalPosition.y
      value: -0.01
      objectReference: {fileID: 0}
    - target: {fileID: 480182, guid: 5b3bd73abc15dad42855d3563df0fff9, type: 2}
      propertyPath: m_LocalPosition.z
      value: 0
      objectReference: {fileID: 0}
    - target: {fileID: 480182, guid: 5b3bd73abc15dad42855d3563df0fff9, type: 2}
      propertyPath: m_LocalRotation.x
      value: 0
      objectReference: {fileID: 0}
    - target: {fileID: 480182, guid: 5b3bd73abc15dad42855d3563df0fff9, type: 2}
      propertyPath: m_LocalRotation.y
      value: 0
      objectReference: {fileID: 0}
    - target: {fileID: 480182, guid: 5b3bd73abc15dad42855d3563df0fff9, type: 2}
      propertyPath: m_LocalRotation.z
      value: 0
      objectReference: {fileID: 0}
    - target: {fileID: 480182, guid: 5b3bd73abc15dad42855d3563df0fff9, type: 2}
      propertyPath: m_LocalRotation.w
      value: 1
      objectReference: {fileID: 0}
    - target: {fileID: 480182, guid: 5b3bd73abc15dad42855d3563df0fff9, type: 2}
      propertyPath: m_RootOrder
      value: 4
      objectReference: {fileID: 0}
    m_RemovedComponents: []
  m_ParentPrefab: {fileID: 100100000, guid: 5b3bd73abc15dad42855d3563df0fff9, type: 2}
  m_IsPrefabParent: 0
--- !u!4 &1676683076 stripped
Transform:
  m_PrefabParentObject: {fileID: 400110, guid: c5607031807265b48b4a92e64f67d4cb, type: 2}
  m_PrefabInternal: {fileID: 665980627}
